<svg width="60" height="60" viewBox="20 8 56 60" fill="none" xmlns="http://www.w3.org/2000/svg">
<g filter="url(#filter0_d)">
<path d="M75.5 38C75.5 22.8122 63.1878 10.5 48 10.5C32.8122 10.5 20.5 22.8122 20.5 38C20.5 53.1878 32.8122 65.5 48 65.5C63.1878 65.5 75.5 53.1878 75.5 38Z" stroke="black"/>
</g>
<path d="M42.8045 38.9666L51.2528 47.3912C51.7902 47.9274 52.6615 47.9274 53.1987 47.3912C53.7359 46.8555 53.7359 45.9866 53.1987 45.451L45.7233 37.9965L53.1984 30.5423C53.7356 30.0064 53.7356 29.1376 53.1984 28.6019C52.6613 28.066 51.79 28.066 51.2526 28.6019L42.8043 37.0266C42.5357 37.2946 42.4016 37.6454 42.4016 37.9965C42.4016 38.3476 42.536 38.6988 42.8045 38.9666Z" fill="black"/>
<defs>
<filter id="filter0_d" x="0" y="0" width="96" height="96" filterUnits="userSpaceOnUse" color-interpolation-filters="sRGB">
<feFlood flood-opacity="0" result="BackgroundImageFix"/>
<feColorMatrix in="SourceAlpha" type="matrix" values="0 0 0 0 0 0 0 0 0 0 0 0 0 0 0 0 0 0 127 0"/>
<feOffset dy="10"/>
<feGaussianBlur stdDeviation="10"/>
<feColorMatrix type="matrix" values="0 0 0 0 0 0 0 0 0 0 0 0 0 0 0 0 0 0 0.1 0"/>
<feBlend mode="normal" in2="BackgroundImageFix" result="effect1_dropShadow"/>
<feBlend mode="normal" in="SourceGraphic" in2="effect1_dropShadow" result="shape"/>
</filter>
</defs>
</svg>
